{
  "project_info": {
    "project_number": "25213536874",
    "firebase_url": "https://yamwheels.firebaseio.com",
    "project_id": "yamwheels",
    "storage_bucket": "yamwheels.appspot.com"
  },
  "client": [
    {
      "client_info": {
        "mobilesdk_app_id": "1:25213536874:android:25e46af54f8510d0cf9813",
        "android_client_info": {
          "package_name": "com.yamsol.yamwheels"
        }
      },
      "oauth_client": [
        {
          "client_id": "25213536874-v03mgdip3mk06944un5ogrgbio3m7jfo.apps.googleusercontent.com",
          "client_type": 3
        }
      ],
      "api_key": [
        {
          "current_key": "AIzaSyDUcPc40WEWLGNHZppZ_cBUYuOm78KtMQQ"
        }
      ],
      "services": {
        "appinvite_service": {
          "other_platform_oauth_client": [
            {
              "client_id": "25213536874-v03mgdip3mk06944un5ogrgbio3m7jfo.apps.googleusercontent.com",
              "client_type": 3
            }
          ]
        }
      }
    }
  ],
  "configuration_version": "1"
}